<?xml version="1.0" standalone="no"?>
<!DOCTYPE svg PUBLIC "-//W3C//DTD SVG 20010904//EN"
 "http://www.w3.org/TR/2001/REC-SVG-20010904/DTD/svg10.dtd">
<svg version="1.0" xmlns="http://www.w3.org/2000/svg"
 width="512.000000pt" height="512.000000pt" viewBox="0 0 512.000000 512.000000"
 preserveAspectRatio="xMidYMid meet">
<metadata>
Created by potrace 1.11, written by Peter Selinger 2001-2013
</metadata>
<g transform="translate(0.000000,512.000000) scale(0.100000,-0.100000)"
fill="#000000" stroke="none">
<path d="M1695 5061 c-22 -10 -52 -31 -67 -47 -15 -16 -386 -702 -824 -1524
-865 -1620 -826 -1539 -794 -1635 17 -51 85 -117 136 -133 31 -9 236 -12 836
-12 l795 0 6 -112 c20 -411 221 -831 534 -1117 295 -270 663 -422 1059 -438
831 -33 1538 519 1716 1340 30 140 33 481 5 627 -28 145 -82 302 -153 445
-230 467 -659 792 -1185 897 -95 19 -146 22 -304 22 -205 0 -301 -13 -462 -61
-49 -14 -96 -26 -107 -27 -15 -1 -111 172 -471 848 -249 467 -466 862 -481
879 -61 64 -161 84 -239 48z m692 -1788 l602 -1128 -605 -3 c-332 -1 -876 -1
-1208 0 l-603 3 601 1127 c330 621 603 1128 607 1128 3 0 276 -507 606 -1127z
m1299 -318 c447 -86 820 -412 963 -841 51 -152 64 -235 64 -399 1 -216 -34
-374 -123 -559 -136 -284 -394 -521 -692 -636 -246 -96 -572 -105 -828 -24
-397 125 -710 438 -834 832 -33 105 -56 236 -56 318 l0 64 596 0 c418 0 608 3
635 11 89 27 148 110 149 209 0 53 -10 73 -249 523 l-249 467 37 9 c158 42
233 51 386 46 66 -2 156 -11 201 -20z"/>
</g>
</svg>
